<svg   viewBox="0 0 20 20"  xmlns="http://www.w3.org/2000/svg">
<path d="M9.31804 12.691C9.69752 13.103 10.3025 13.103 10.682 12.691L14.2027 8.86885C14.8308 8.18709 14.3976 7 13.5208 7H6.47921C5.60242 7 5.16925 8.18709 5.79725 8.86885L9.31804 12.691Z" />
</svg>
